<?xml version="1.0" encoding="UTF-8"?>
<session version="1.0">
<refactoring accessors="true" comment="Delete element from project &apos;Exercicis_Joel&apos;&#x0D;&#x0A;- Original project: &apos;Exercicis_Joel&apos;&#x0D;&#x0A;- Original element: &apos;Matrius.package-info.java&apos;" description="Delete element" element1="/src&lt;Matrius{package-info.java" elements="1" flags="589830" id="org.eclipse.jdt.ui.delete" resources="0" stamp="1669893575873" subPackages="false" version="1.0"/>
</session>